…
Lorem lorem



```r
url_base <- "http://graphics8.nytimes.com/newsgraphics/2016/01/01/weather/assets"
file <- "new-york_ny.csv" # "san-francisco_ca.csv"
url_file <- file.path(url_base, file)

data <- read_csv(url_file)
data
```

```
## # A tibble: 365 × 19
##          date month temp_max temp_min temp_rec_max temp_rec_min
##        <date> <int>    <int>    <int>        <int>        <int>
## 1  2015-01-01     1       39       27           62           -4
## 2  2015-01-02     1       42       35           68            2
## 3  2015-01-03     1       42       33           64           -4
## 4  2015-01-04     1       56       41           66           -3
## 5  2015-01-05     1       49       21           64           -4
## 6  2015-01-06     1       22       19           72           -2
## 7  2015-01-07     1       23        9           64            4
## 8  2015-01-08     1       21        8           65            2
## 9  2015-01-09     1       33       19           64           -1
## 10 2015-01-10     1       23       16           60           -6
## # ... with 355 more rows, and 13 more variables: temp_avg_max <int>,
## #   temp_avg_min <int>, temp_rec_high <chr>, temp_rec_low <chr>,
## #   precip_value <dbl>, precip_actual <dbl>, precip_normal <dbl>,
## #   precip_rec <chr>, snow_rec <chr>, annual_average_temperature <dbl>,
## #   departure_from_normal <int>, total_precipitation <dbl>,
## #   precipitation_departure_from_normal <int>
```
…
```r
datagather <- data %>% 
select(dt, starts_with("temp")) %>% 
  select(-temp_rec_high, -temp_rec_low) %>% 
  rename(temp_actual_max = temp_max,
         temp_actual_min = temp_min) %>% 
  gather(key, value, -dt) %>% 
  mutate(key = str_replace(key, "temp_", "")) 

datagather
```

```
## # A tibble: 2,190 × 3
##              dt        key value
##           <dbl>      <chr> <int>
## 1  1.420070e+12 actual_max    39
## 2  1.420157e+12 actual_max    42
## 3  1.420243e+12 actual_max    42
## 4  1.420330e+12 actual_max    56
## 5  1.420416e+12 actual_max    49
## 6  1.420502e+12 actual_max    22
## 7  1.420589e+12 actual_max    23
## 8  1.420675e+12 actual_max    21
## 9  1.420762e+12 actual_max    33
## 10 1.420848e+12 actual_max    23
## # ... with 2,180 more rows
```

```r
dataspread <- datagather %>% 
  separate(key, c("serie", "type"), sep = "_") %>% 
  spread(type, value)

dataspread
```

```
## # A tibble: 1,095 × 4
##              dt  serie   max   min
## *         <dbl>  <chr> <int> <int>
## 1  1.420070e+12 actual    39    27
## 2  1.420070e+12    avg    39    28
## 3  1.420070e+12    rec    62    -4
## 4  1.420157e+12 actual    42    35
## 5  1.420157e+12    avg    39    28
## 6  1.420157e+12    rec    68     2
## 7  1.420243e+12 actual    42    33
## 8  1.420243e+12    avg    39    28
## 9  1.420243e+12    rec    64    -4
## 10 1.420330e+12 actual    56    41
## # ... with 1,085 more rows
```

Finaly some fixes



```r
data2 <- dataspread %>% 
  mutate(serie = factor(serie, levels = c("rec", "avg", "actual")),
         serie = fct_recode(serie, Record = "rec", Normal = "avg", Observed = "actual"))

data2
```

```
## # A tibble: 1,095 × 4
##              dt    serie   max   min
##           <dbl>   <fctr> <int> <int>
## 1  1.420070e+12 Observed    39    27
## 2  1.420070e+12   Normal    39    28
## 3  1.420070e+12   Record    62    -4
## 4  1.420157e+12 Observed    42    35
## 5  1.420157e+12   Normal    39    28
## 6  1.420157e+12   Record    68     2
## 7  1.420243e+12 Observed    42    33
## 8  1.420243e+12   Normal    39    28
## 9  1.420243e+12   Record    64    -4
## 10 1.420330e+12 Observed    56    41
## # ... with 1,085 more rows
```
…
