…
```r
data2 <- data %>% 
  group_by(paraderosubida) %>% 
  mutate(subidas_laboral_promedio = scale(subidas_laboral_promedio),
         mediahora = paste0("m", mediahora)) %>% 
  ungroup() %>% 
  spread(mediahora, subidas_laboral_promedio) 

data2
```

```
## # A tibble: 106 × 38
##              paraderosubida m19800000  `m2.7e+07`  m21600000   m23400000
## *                     <chr>     <dbl>       <dbl>      <dbl>       <dbl>
## 1                 Alcantara -1.232728 -0.03146052 -1.1974939 -1.06387209
## 2              Baquedano L1 -1.667694 -0.49069173 -1.5627105 -1.33813316
## 3              Baquedano L5 -1.025961 -0.31667190 -1.0052260 -0.93730013
## 4                 Barrancas -1.100885  2.87652722 -0.2747350  0.82575547
## 5              Bellas Artes -1.102366 -0.26310622 -1.0097919 -0.84169629
## 6  Bellavista De La Florida -1.539469  2.04902294 -1.0389649 -0.08222413
## 7                Blanqueado -1.044162  3.09321212 -0.0773973  1.17266799
## 8               Cal Y Canto -1.617314  1.65174671 -1.0089067 -0.09951725
## 9           Camino Agricola -2.021902  1.05862111 -1.6149999 -0.70136801
## 10        Carlos Valdovinos -1.300478  1.27243180 -0.8538297 -0.20257855
## # ... with 96 more rows, and 33 more variables: m25200000 <dbl>,
## #   m28800000 <dbl>, `m3.6e+07` <dbl>, m30600000 <dbl>, m32400000 <dbl>,
## #   m34200000 <dbl>, m37800000 <dbl>, m39600000 <dbl>, `m4.5e+07` <dbl>,
## #   m41400000 <dbl>, m43200000 <dbl>, m46800000 <dbl>, m48600000 <dbl>,
## #   `m5.4e+07` <dbl>, m50400000 <dbl>, m52200000 <dbl>, m55800000 <dbl>,
## #   m57600000 <dbl>, m59400000 <dbl>, `m6.3e+07` <dbl>, m61200000 <dbl>,
## #   m64800000 <dbl>, m66600000 <dbl>, m68400000 <dbl>, `m7.2e+07` <dbl>,
## #   m70200000 <dbl>, m73800000 <dbl>, m75600000 <dbl>, m77400000 <dbl>,
## #   m79200000 <dbl>, `m8.1e+07` <dbl>, m82800000 <dbl>, m84600000 <dbl>
```
…
